{
  "patches": {
    "drupal/ckeditor_details": {
      "https://www.drupal.org/node/3244311": "https://www.drupal.org/files/issues/2024-11-15/3244311-9.patch"
    },
    "drupal/core": {
      "https://www.drupal.org/node/2950407": "https://www.drupal.org/files/issues/2024-09-04/2950407-35.patch",
      "https://www.drupal.org/node/3143562": "https://www.drupal.org/files/issues/2021-11-01/3143562-11.patch",
      "https://www.drupal.org/node/3412444": "https://www.drupal.org/files/issues/2024-03-15/3412444-5.patch",
      "https://www.drupal.org/node/3413079": "https://www.drupal.org/files/issues/2024-01-08/3413079-9.patch",
      "https://www.drupal.org/node/3489329": "https://www.drupal.org/files/issues/2024-11-25/3489329-14.patch"
    },
    "drupal/ctools": {
      "https://www.drupal.org/node/2475595": "https://www.drupal.org/files/issues/2475595-ctools-autocomplete-fix-47.patch"
    },
    "drupal/image_widget_crop": {
      "https://www.drupal.org/node/3180538": "https://www.drupal.org/files/issues/2020-11-03/3180538-multiple-crop-types-per-image-style-8.x-2.3.patch"
    },
    "drupal/linkit": {
      "https://www.drupal.org/node/2877535": "https://www.drupal.org/files/issues/2023-10-03/linkit-2877535-62.patch"
    },
    "drupal/potx": {
      "https://www.drupal.org/node/1299966": "https://www.drupal.org/files/issues/2022-01-26/1299966-28.patch",
      "https://www.drupal.org/node/3013103": "https://www.drupal.org/files/issues/2022-06-03/3013103-plural-translations-18.patch"
    },
    "drupal/redis": {
      "https://www.drupal.org/node/3216874": "https://www.drupal.org/files/issues/2021-11-16/3216874-2.patch"
    },
    "drupal/swiftmailer": {
      "https://www.drupal.org/node/3390664": "https://www.drupal.org/files/issues/2023-09-29/swiftmailer-d10-mime-type-guesser-3390664-2.patch"
    },
    "drush/drush": {
      "https://github.com/drush-ops/drush/pull/6057": "https://bitbucket.org/!api/2.0/snippets/swisnl/eq6544/8165ad309e565699e0b1932c50f81d347ce5047f/files/6057.patch"
    }
  }
}
