<svg xmlns="http://www.w3.org/2000/svg" viewBox="0 0 24 24">
  <path d="M 5.1096049,6.4454999 12.000001,13.335883 18.890369,6.4454999 20.999691,8.5548089 12.000001,17.5545 3.0003089,8.5548089 Z" />
</svg>
