<svg xmlns="http://www.w3.org/2000/svg" viewBox="0 0 24 24">
  <path d="M 17.5545,5.1096049 10.664117,12.000001 17.5545,18.890369 15.445191,20.999691 6.4454999,12.000001 15.445191,3.0003089 Z" />
</svg>
